VytKra Mathematical Methods for Artificial Intelligence Lab 1
…
We clearly see one value, with an actual value of ~-0.5, while the fitted value is ~-70.

Lets look at that observation before transformation was applied:

test[test_lm < -60,] %>% 
  tidyr::pivot_longer(cols = everything())

## # A tibble: 159 x 2
##    name                       value
##    <chr>                      <dbl>
##  1 number_of_elements        4     
##  2 mean_atomic_mass         90.1   
##  3 wtd_mean_atomic_mass    138.    
##  4 gmean_atomic_mass        66.9   
##  5 wtd_gmean_atomic_mass   134.    
##  6 entropy_atomic_mass       1.18  
##  7 wtd_entropy_atomic_mass   0.0406
##  8 range_atomic_mass       125.    
##  9 wtd_range_atomic_mass   137.    
## 10 std_atomic_mass          53.1   
## # ... with 149 more rows
…
